{
    "list": [
        {
            "name": "Малый круг",
            "coords": [[55.773909,37.780936], [55.773885,37.780619], [55.773915,37.780421],[55.774042,37.779975],[55.774217,37.779321],[55.774328,37.778838]],
            "parts": [
                {"from": 0, "to": 50, "description": "", "title": "Title1", "condition": "bad"}
            ]
        }
    ]
}